{
  "images": [
    {
      "filename": "icon-small.png",
      "size": "29x29",
      "scale": "1x",
      "idiom": "iphone"
    },
    {
      "filename": "icon-small@2x.png",
      "size": "29x29",
      "scale": "2x",
      "idiom": "iphone"
    },
    {
      "filename": "icon-small@3x.png",
      "size": "29x29",
      "scale": "3x",
      "idiom": "iphone"
    },
    {
      "filename": "icon-40@2x.png",
      "size": "40x40",
      "scale": "2x",
      "idiom": "iphone"
    },
    {
      "filename": "icon-40@3x.png",
      "size": "40x40",
      "scale": "3x",
      "idiom": "iphone"
    },
    {
      "filename": "icon-57.png",
      "size": "57x57",
      "scale": "1x",
      "idiom": "iphone"
    },
    {
      "filename": "icon-57@2x.png",
      "size": "57x57",
      "scale": "2x",
      "idiom": "iphone"
    },
    {
      "filename": "icon-60@2x.png",
      "size": "60x60",
      "scale": "2x",
      "idiom": "iphone"
    },
    {
      "filename": "icon-60@3x.png",
      "size": "60x60",
      "scale": "3x",
      "idiom": "iphone"
    },
    {
      "filename": "icon-small.png",
      "size": "29x29",
      "scale": "1x",
      "idiom": "ipad"
    },
    {
      "filename": "icon-small@2x.png",
      "size": "29x29",
      "scale": "2x",
      "idiom": "ipad"
    },
    {
      "filename": "icon-40.png",
      "size": "40x40",
      "scale": "1x",
      "idiom": "ipad"
    },
    {
      "filename": "icon-40@2x.png",
      "size": "40x40",
      "scale": "2x",
      "idiom": "ipad"
    },
    {
      "filename": "icon-50.png",
      "size": "50x50",
      "scale": "1x",
      "idiom": "ipad"
    },
    {
      "filename": "icon-50@2x.png",
      "size": "50x50",
      "scale": "2x",
      "idiom": "ipad"
    },
    {
      "filename": "icon-72.png",
      "size": "72x72",
      "scale": "1x",
      "idiom": "ipad"
    },
    {
      "filename": "icon-72@2x.png",
      "size": "72x72",
      "scale": "2x",
      "idiom": "ipad"
    },
    {
      "filename": "icon-76.png",
      "size": "76x76",
      "scale": "1x",
      "idiom": "ipad"
    },
    {
      "filename": "icon-76@2x.png",
      "size": "76x76",
      "scale": "2x",
      "idiom": "ipad"
    },
    {
      "role": "notificationCenter",
      "size": "24x24",
      "subtype": "38mm",
      "scale": "2x",
      "idiom": "watch"
    },
    {
      "role": "notificationCenter",
      "size": "27.5x27.5",
      "subtype": "42mm",
      "scale": "2x",
      "idiom": "watch"
    },
    {
      "role": "companionSettings",
      "size": "29x29",
      "scale": "2x",
      "idiom": "watch"
    },
    {
      "role": "companionSettings",
      "size": "29x29",
      "scale": "3x",
      "idiom": "watch"
    },
    {
      "role": "appLauncher",
      "size": "40x40",
      "subtype": "38mm",
      "scale": "2x",
      "idiom": "watch"
    },
    {
      "role": "longLook",
      "size": "44x44",
      "subtype": "42mm",
      "scale": "2x",
      "idiom": "watch"
    },
    {
      "role": "quickLook",
      "size": "86x86",
      "subtype": "38mm",
      "scale": "2x",
      "idiom": "watch"
    },
    {
      "role": "quickLook",
      "size": "98x98",
      "subtype": "42mm",
      "scale": "2x",
      "idiom": "watch"
    },
    {
      "size": "120x120",
      "scale": "1x",
      "idiom": "car"
    }
  ],
  "info": {
    "version": 1,
    "author": "xcode"
  }
}